<svg xmlns="http://www.w3.org/2000/svg" width="15" height="13" viewBox="0 0 15 13">
    <path fill="#51D5FC" fill-rule="evenodd" d="M7.46 13c-.257-.255-.515-.505-.766-.761-1.845-1.887-3.692-3.771-5.531-5.663C.105 5.49-.253 4.19.18 2.731.6 1.313 1.575.407 3.007.094 4.836-.304 6.585.67 7.292 2.391c.05.124.133.236.2.354.077-.119.173-.229.226-.357C8.37.806 9.986-.17 11.64.025a3.8 3.8 0 0 1 3.317 3.243c.188 1.337-.245 2.454-1.192 3.398-1.495 1.49-2.973 2.996-4.46 4.493-.609.612-1.221 1.218-1.846 1.841"/>
</svg>
